Playing with lesson 2-py
…
rsum <- py$df12b %>% 
  group_by(lubridate::year(datetime),lubridate::month(datetime)) %>% 
  select(p00681, p00945, p50287, p50285) %>% 
  summarise(across(everything(), list(mean=~mean(.x, na.rm=T), std=~sd(.x, na.rm=T), n=~n()), .names = "{.col}.{.fn}"))

## Adding missing grouping variables: `lubridate::year(datetime)`, `lubridate::month(datetime)`

## `summarise()` regrouping output by 'lubridate::year(datetime)' (override with `.groups` argument)

rsum

## # A tibble: 86 x 14
## # Groups:   lubridate::year(datetime) [9]
##    `lubridate::yea~ `lubridate::mon~ p00681.mean p00681.std p00681.n p00945.mean
##               <dbl>            <dbl>       <dbl>      <dbl>    <int>       <dbl>
##  1             2011                5        4.93    NA             1        2.63
##  2             2011                6        3.72    NA             1        3.24
##  3             2011                7        3.3     NA             1        3.59
##  4             2011                8        3.58    NA             1        3.79
##  5             2011               10        4.30     0.219         2        2.99
##  6             2011               11        4.55     0.0566        2        2.68
##  7             2011               12        4.14    NA             1        2.62
##  8             2012                1        3.33    NA             1        2.57
##  9             2012                3        3.47     0.212         4        2.37
## 10             2012                4        3.24    NA             1        2.88
## # ... with 76 more rows, and 8 more variables: p00945.std <dbl>,
## #   p00945.n <int>, p50287.mean <dbl>, p50287.std <dbl>, p50287.n <int>,
## #   p50285.mean <dbl>, p50285.std <dbl>, p50285.n <int>
…
